module gitlab.com/pcharun/boot-camp

go 1.17

require (
	github.com/gorilla/mux v1.8.0
	github.com/swaggo/http-swagger v1.1.2
	github.com/swaggo/swag v1.7.4
	go.mongodb.org/mongo-driver v1.7.4
)

require (
	github.com/KyleBanks/depth v1.2.1 // indirect
	github.com/PuerkitoBio/purell v1.1.1 // indirect
	github.com/PuerkitoBio/urlesc v0.0.0-20170810143723-de5bf2ad4578 // indirect
	github.com/go-openapi/jsonpointer v0.19.5 // indirect
	github.com/go-openapi/jsonreference v0.19.5 // indirect
	github.com/go-openapi/spec v0.20.3 // indirect
	github.com/go-openapi/swag v0.19.14 // indirect
	github.com/go-stack/stack v1.8.0 // indirect
	github.com/golang/snappy v0.0.1 // indirect
	github.com/josharian/intern v1.0.0 // indirect
	github.com/klauspost/compress v1.13.6 // indirect
	github.com/mailru/easyjson v0.7.6 // indirect
	github.com/pkg/errors v0.9.1 // indirect
	github.com/swaggo/files v0.0.0-20190704085106-630677cd5c14 // indirect
	github.com/xdg-go/pbkdf2 v1.0.0 // indirect
	github.com/xdg-go/scram v1.0.2 // indirect
	github.com/xdg-go/stringprep v1.0.2 // indirect
	github.com/youmark/pkcs8 v0.0.0-20181117223130-1be2e3e5546d // indirect
	golang.org/x/crypto v0.0.0-20200622213623-75b288015ac9 // indirect
	golang.org/x/net v0.0.0-20210119194325-5f4716e94777 // indirect
	golang.org/x/sync v0.0.0-20201020160332-67f06af15bc9 // indirect
	golang.org/x/sys v0.0.0-20210119212857-b64e53b001e4 // indirect
	golang.org/x/text v0.3.5 // indirect
	golang.org/x/tools v0.1.0 // indirect
	gopkg.in/yaml.v2 v2.4.0 // indirect
)
